<svg width="24" height="25" viewBox="0 0 24 25" fill="none" xmlns="http://www.w3.org/2000/svg">
  <path d="M17.1562 16.7768C17.079 16.8522 17.0009 16.9268 16.9228 17.0004C17.0009 16.9268 17.079 16.8522 17.1562 16.7777C17.173 16.7617 17.189 16.7457 17.205 16.7298C17.189 16.7457 17.173 16.7617 17.1562 16.7768ZM11.9095 21.1539C11.9618 21.1575 12.0133 21.1557 12.063 21.1486C12.0133 21.1548 11.9618 21.1566 11.9095 21.1539ZM11.8589 21.1495C11.8367 21.1477 11.8154 21.145 11.7941 21.1415C11.8154 21.1459 11.8367 21.1486 11.8589 21.1504C11.8758 21.1521 11.8926 21.1539 11.9095 21.1539C11.8926 21.1521 11.8758 21.1512 11.8589 21.1495ZM10.4632 20.1628C9.98935 19.7537 9.51819 19.342 9.0488 18.9276C9.51819 19.3429 9.98935 19.7546 10.4632 20.1637C10.6566 20.3305 10.8438 20.5026 11.0373 20.6677C10.8438 20.5017 10.6566 20.3287 10.4632 20.1628ZM6.72227 16.8371C6.95208 17.0492 7.18456 17.2577 7.41703 17.4662C7.18456 17.2559 6.95208 17.0483 6.72227 16.8371ZM5.82254 15.9693C5.67613 15.8185 5.5315 15.6668 5.38864 15.5133C5.53061 15.6668 5.67524 15.8185 5.82165 15.9693C5.85803 16.0075 5.89441 16.0448 5.93168 16.0811C5.8953 16.0439 5.85892 16.0066 5.82254 15.9693ZM6.2094 16.3553C6.37799 16.5195 6.54924 16.6792 6.72138 16.8371C6.54924 16.6783 6.37799 16.5177 6.2094 16.3553ZM3.41082 12.7591C3.48447 12.9117 3.56433 13.0616 3.64774 13.2107C3.56433 13.0616 3.48536 12.9108 3.41082 12.7591ZM2.93434 8.01282C2.96806 7.89658 3.00621 7.78212 3.04791 7.66943C3.00532 7.78212 2.96806 7.89658 2.93434 8.01282ZM2.82254 8.48576C2.85182 8.32516 2.88997 8.16721 2.93434 8.01282C2.88908 8.16721 2.85182 8.32516 2.82254 8.48576ZM2.80213 10.8283C2.79769 10.7954 2.79325 10.7635 2.78882 10.7307C2.79237 10.7635 2.7968 10.7963 2.80124 10.8291C2.81632 10.9356 2.83407 11.0403 2.85537 11.145C2.83496 11.0403 2.81721 10.9347 2.80213 10.8283Z" fill="#BA183E"/>
  <path d="M21.1436 10.2541C21.1392 10.3118 21.1348 10.3686 21.1285 10.4263C21.1179 10.5292 21.1046 10.6312 21.0886 10.7315C21.0753 10.8176 21.0593 10.9028 21.0416 10.9871C21.0229 11.0749 21.0025 11.161 20.9804 11.247C20.9741 11.2737 20.967 11.3003 20.9591 11.326C20.9324 11.4254 20.9023 11.5248 20.8694 11.6224C20.7062 12.1166 20.4817 12.5904 20.2199 13.0509C19.7781 13.8282 19.2439 14.5372 18.6521 15.2062C18.4435 15.4422 18.2315 15.6756 18.015 15.9045C17.952 15.9729 17.8881 16.0403 17.8242 16.1068C17.668 16.2692 17.5101 16.4298 17.3504 16.5878C17.3184 16.6197 17.2856 16.6508 17.2537 16.6818C17.2368 16.6978 17.2208 16.7138 17.2048 16.7297C17.1889 16.7457 17.1729 16.7617 17.156 16.7776C17.0789 16.8522 17.0008 16.9267 16.9227 17.0004C16.8455 17.0749 16.7674 17.1485 16.6893 17.2231C16.2199 17.6676 15.7452 18.106 15.2607 18.5345C14.7674 18.9729 14.2803 19.4165 13.7852 19.8522C13.7372 19.8948 13.6893 19.9374 13.6405 19.9782C13.4826 20.1184 13.3237 20.2559 13.1649 20.3934H13.164C12.9564 20.5736 12.7479 20.7519 12.5385 20.9294H12.5376C12.4435 21.0101 12.3415 21.0713 12.2306 21.1095C12.2093 21.1175 12.1871 21.1237 12.1649 21.129C12.1321 21.1379 12.0975 21.145 12.0629 21.1485C12.0132 21.1556 11.9617 21.1574 11.9094 21.1539C11.8925 21.1539 11.8757 21.1521 11.8588 21.1503C11.8588 21.0855 11.8597 21.0225 11.8597 20.9587C11.8597 19.1228 11.8597 17.287 11.8597 15.4502C12.1933 15.4511 12.5261 15.4485 12.8597 15.452C13.0425 15.4547 13.0691 15.4343 13.0691 15.2497C13.0664 14.6366 13.0638 14.0225 13.062 13.4085C13.0611 13.2328 13.0815 13.2098 13.2581 13.216C13.8721 13.2373 14.4852 13.1982 15.0984 13.2213C15.2776 13.2275 15.2998 13.2044 15.2971 13.0305C15.2883 12.4103 15.2883 11.7892 15.2971 11.1681C15.2998 10.9968 15.2749 10.9755 15.0984 10.9755C14.4844 10.9764 13.8703 10.9782 13.2563 10.9791C13.0789 10.9791 13.0611 10.9631 13.062 10.7856C13.0638 10.176 13.0664 9.56558 13.0691 8.95511C13.0691 8.76079 13.0522 8.7457 12.857 8.74304C12.5243 8.73772 12.1907 8.76611 11.8579 8.74304C11.8579 8.08022 11.8579 7.41651 11.8588 6.75369C11.8588 6.33488 11.8615 5.91696 11.8632 5.49814C11.873 5.50347 11.8819 5.50702 11.8907 5.50968C11.8996 5.51323 11.9094 5.515 11.9182 5.51678C11.9768 5.52476 12.0265 5.49282 12.0753 5.45289C12.2457 5.31625 12.4222 5.18936 12.6041 5.07223C12.6955 5.01367 12.7869 4.95777 12.881 4.90542C13.1001 4.78031 13.3282 4.67028 13.5642 4.57534C13.8446 4.46265 14.1303 4.37481 14.4214 4.31003C14.5252 4.28696 14.6299 4.26656 14.7346 4.24881C14.7452 4.24703 14.7559 4.24526 14.7656 4.24349C14.8348 4.23284 14.9041 4.22308 14.9733 4.21332C15.0842 4.19912 15.1969 4.18759 15.3096 4.17871C16.1356 4.11483 16.928 4.21687 17.6813 4.50436C17.834 4.56292 17.9839 4.62858 18.133 4.70134C18.1827 4.72618 18.2324 4.75103 18.282 4.77765C18.4045 4.84242 18.5234 4.91074 18.6387 4.98173C18.7532 5.0536 18.865 5.12902 18.9733 5.20711C19.0274 5.24615 19.0815 5.28608 19.1339 5.32689C19.2386 5.40941 19.3397 5.49459 19.4373 5.58333H19.4382C19.487 5.62858 19.5349 5.67383 19.582 5.71997C19.676 5.81225 19.7665 5.90808 19.8544 6.00835C19.9404 6.10861 20.0247 6.21243 20.1046 6.32068C20.2634 6.53541 20.408 6.76522 20.5376 7.01101C20.574 7.08199 20.6095 7.15209 20.6432 7.22219C20.6769 7.29229 20.7097 7.36327 20.7408 7.43426C20.7718 7.50702 20.802 7.57889 20.8295 7.65076C20.8535 7.71199 20.8757 7.77321 20.897 7.83532C20.9182 7.89743 20.9387 7.95955 20.9573 8.02166C20.9804 8.10063 21.0025 8.1796 21.0212 8.25946C21.0407 8.33931 21.0584 8.41917 21.0726 8.50081C21.0824 8.55493 21.0913 8.60906 21.0993 8.66407C21.1046 8.70311 21.1099 8.74215 21.1143 8.7812C21.1268 8.89122 21.1365 9.00125 21.1454 9.11128C21.1525 9.2213 21.1587 9.33133 21.1623 9.44136C21.1702 9.71199 21.164 9.9835 21.1427 10.2541H21.1436Z" fill="#E72B4E"/>
  <path d="M10.9992 15.4503C11.2867 15.4512 11.5733 15.4503 11.8608 15.4503C11.8608 17.2871 11.8608 19.1229 11.8608 20.9588C11.8608 21.0226 11.8599 21.0856 11.8599 21.1495C11.8377 21.1486 11.8164 21.146 11.7951 21.1415C11.7738 21.138 11.7534 21.1336 11.733 21.1282C11.6922 21.1176 11.6523 21.1034 11.6141 21.0865C11.5369 21.0528 11.465 21.0084 11.3958 20.9561C11.2734 20.8647 11.1545 20.7671 11.0382 20.6677C10.8448 20.5027 10.6576 20.3305 10.4642 20.1637C9.99033 19.7547 9.51917 19.343 9.04978 18.9277C8.5804 18.5142 8.11367 18.0963 7.64961 17.6757C7.57241 17.6056 7.49521 17.5364 7.41802 17.4663C7.18554 17.2578 6.95307 17.0493 6.72325 16.8372H6.72237C6.55023 16.6792 6.37898 16.5195 6.21039 16.3554C6.15449 16.3013 6.09859 16.2462 6.04357 16.1912C6.0063 16.1548 5.96904 16.1185 5.93266 16.0812C5.89539 16.0448 5.85901 16.0076 5.82263 15.9694C5.67622 15.8186 5.53159 15.6668 5.38962 15.5133C4.77205 14.8487 4.19619 14.1495 3.7339 13.3589C3.70462 13.3101 3.67711 13.2604 3.64872 13.2107C3.56531 13.0617 3.48545 12.9117 3.41181 12.7591C3.37454 12.6828 3.33905 12.6065 3.30444 12.5293C3.21749 12.3367 3.14029 12.1407 3.07197 11.941C3.05777 11.9011 3.04446 11.8611 3.03204 11.8212C3.01429 11.768 2.99743 11.7139 2.98235 11.6597C2.93266 11.4911 2.89007 11.319 2.85635 11.1451C2.83505 11.0404 2.81731 10.9357 2.80222 10.8292C2.79779 10.7964 2.79335 10.7635 2.7898 10.7307C2.78182 10.6642 2.7756 10.5976 2.76939 10.532C2.76673 10.4991 2.76407 10.4654 2.76229 10.4326C2.74721 10.2116 2.74366 9.99069 2.74277 9.76798C2.74189 9.33852 2.74544 8.90906 2.82352 8.48582C2.8528 8.32521 2.89007 8.16727 2.93532 8.01288C2.96904 7.89664 3.0063 7.78218 3.0489 7.66949C3.17489 7.33054 3.33905 7.00667 3.53603 6.69788C3.75786 6.35094 4.00364 6.03861 4.27161 5.76266C4.30533 5.72805 4.33993 5.69345 4.37365 5.66062C4.42334 5.6127 4.47303 5.56567 4.52361 5.51953C4.59992 5.45121 4.678 5.38466 4.75786 5.32078C4.78448 5.29948 4.8111 5.27818 4.83772 5.25778C4.88119 5.22406 4.92556 5.19123 4.97081 5.15928C5.12166 5.05103 5.27871 4.95254 5.44109 4.86115C5.54934 4.80081 5.65937 4.74402 5.77294 4.69078C5.94242 4.61181 6.11722 4.54083 6.29823 4.47872C6.61944 4.3678 6.95839 4.28528 7.3142 4.22938C7.38607 4.21785 7.45795 4.20809 7.52982 4.19921C7.57685 4.19389 7.62299 4.18857 7.66913 4.18413C7.97081 4.15485 8.26717 4.15041 8.5591 4.16727C8.67001 4.17437 8.78004 4.18413 8.89007 4.19744C9.03559 4.21607 9.18022 4.23914 9.32396 4.26842C9.35946 4.27641 9.39583 4.28351 9.43133 4.29149C9.57951 4.32521 9.72591 4.36514 9.87055 4.41039C9.93532 4.4308 10.0001 4.4521 10.064 4.47517C10.1678 4.51243 10.2707 4.55236 10.3728 4.59495C10.4074 4.60915 10.442 4.62424 10.4757 4.63932C10.5431 4.66949 10.6115 4.70054 10.6789 4.73338C10.9815 4.88067 11.2778 5.05547 11.568 5.25511C11.6203 5.29149 11.67 5.33142 11.7188 5.37313C11.7428 5.39353 11.7676 5.41483 11.7916 5.43613C11.8155 5.45742 11.8404 5.47783 11.8643 5.49824C11.8626 5.91705 11.8608 6.33497 11.8599 6.75378C11.859 7.41661 11.859 8.08031 11.859 8.74314C11.5902 8.76443 11.3204 8.73781 11.0516 8.74314C10.8359 8.74669 10.8262 8.7529 10.8271 8.97295C10.8288 9.57987 10.8324 10.1859 10.8342 10.7919C10.8342 10.9605 10.8146 10.9792 10.6434 10.9792C10.0338 10.9783 9.42334 10.9765 8.81376 10.9756C8.61766 10.9756 8.59903 10.9942 8.59903 11.1859V13.0155C8.59903 13.2054 8.615 13.2232 8.804 13.2223C9.41358 13.2205 10.0232 13.217 10.6327 13.2152C10.8111 13.2143 10.8351 13.2383 10.8342 13.4175C10.8324 14.0377 10.8288 14.658 10.8271 15.2791C10.8271 15.4299 10.8493 15.4503 10.9992 15.4503Z" fill="#EA5469"/>
  <path d="M11.8608 15.4504C11.5733 15.4504 11.2867 15.4504 10.9992 15.4504C10.8493 15.4504 10.8271 15.43 10.8271 15.2783C10.8288 14.658 10.8315 14.0369 10.8342 13.4167C10.8342 13.2375 10.8111 13.2135 10.6327 13.2144C10.0232 13.2162 9.4127 13.2197 8.80311 13.2215C8.615 13.2215 8.59814 13.2046 8.59814 13.0147C8.59814 12.4052 8.59814 11.7947 8.59814 11.1851C8.59814 10.9934 8.61678 10.9748 8.81287 10.9748C9.42246 10.9757 10.0329 10.9775 10.6425 10.9784C10.8138 10.9784 10.8333 10.9597 10.8333 10.7911C10.8315 10.1851 10.828 9.57818 10.8262 8.97215C10.8262 8.75209 10.8351 8.74588 11.0507 8.74144C11.3195 8.73612 11.5893 8.76274 11.8581 8.74144C12.1909 8.76363 12.5245 8.73612 12.8572 8.74144C13.0524 8.74411 13.0693 8.75919 13.0684 8.95351C13.0666 9.56398 13.0631 10.1736 13.0613 10.784C13.0613 10.9606 13.0782 10.9775 13.2556 10.9775C13.8697 10.9766 14.4837 10.9748 15.0968 10.9739C15.2743 10.9739 15.2982 10.9952 15.2956 11.1665C15.2867 11.7876 15.2867 12.4078 15.2956 13.0289C15.2982 13.2028 15.276 13.2259 15.0977 13.2197C14.4846 13.1966 13.8705 13.2357 13.2574 13.2144C13.08 13.2082 13.0604 13.2321 13.0613 13.4069C13.0631 14.0209 13.0658 14.6341 13.0684 15.2481C13.0684 15.4327 13.0418 15.4531 12.859 15.4504C12.5254 15.446 12.1918 15.4486 11.859 15.4486L11.8608 15.4504Z" fill="white"/>
</svg>
